Assignment #2 - Meta-analysis on Ocean Ocidification
…
## New names:
## * `` -> ...1

## Rows: 589 Columns: 9
## -- Column specification --------------------------------------------------------
## Delimiter: ","
## chr (5): loc, species, treatment, size, comment
## dbl (4): ...1, animal_id, sl, activity
## 
## i Use `spec()` to retrieve the full column specification for this data.
## i Specify the column types or set `show_col_types = FALSE` to quiet this message.

data

## # A tibble: 589 x 9
##     ...1 loc       species treatment animal_id    sl size  activity comment     
##    <dbl> <chr>     <chr>   <chr>         <dbl> <dbl> <chr>    <dbl> <chr>       
##  1     1 LIRS 2014 ambon   CO2              64  57.0 big       8.15 27min means~
##  2     2 LIRS 2014 ambon   CO2              65  38.2 big      10.5  27min means~
##  3     3 LIRS 2014 ambon   CO2              67  39.3 big       6.51 27min means~
##  4     4 LIRS 2014 ambon   CO2              68  36.1 big      27.8  27min means~
##  5     5 LIRS 2014 lemon   CO2              74  36.4 big      36.7  27min means~
##  6     6 LIRS 2014 ambon   CO2              75  35.9 big      42.8  27min means~
##  7     7 LIRS 2014 lemon   CO2              81  35.7 big      21.9  27min means~
##  8     8 LIRS 2014 ambon   CO2              84  38.4 big      24.6  27min means~
##  9     9 LIRS 2014 ambon   CO2             222  34   big      NA    recording f~
## 10    10 LIRS 2014 ambon   CO2              85  48.3 big      35.1  27min means~
## # ... with 579 more rows

Transform columns name of data to the same as
ocean_meta_data.csv.

names(data)[3]='Species'

Remove some meaningless data with NA.

data1<- data %>% filter(!(is.na(animal_id))) %>% filter(!(is.na(activity)))
data1

## # A tibble: 550 x 9
##     ...1 loc       Species treatment animal_id    sl size  activity comment     
##    <dbl> <chr>     <chr>   <chr>         <dbl> <dbl> <chr>    <dbl> <chr>       
##  1     1 LIRS 2014 ambon   CO2              64  57.0 big       8.15 27min means~
##  2     2 LIRS 2014 ambon   CO2              65  38.2 big      10.5  27min means~
##  3     3 LIRS 2014 ambon   CO2              67  39.3 big       6.51 27min means~
##  4     4 LIRS 2014 ambon   CO2              68  36.1 big      27.8  27min means~
##  5     5 LIRS 2014 lemon   CO2              74  36.4 big      36.7  27min means~
##  6     6 LIRS 2014 ambon   CO2              75  35.9 big      42.8  27min means~
##  7     7 LIRS 2014 lemon   CO2              81  35.7 big      21.9  27min means~
##  8     8 LIRS 2014 ambon   CO2              84  38.4 big      24.6  27min means~
##  9    10 LIRS 2014 ambon   CO2              85  48.3 big      35.1  27min means~
## 10    11 LIRS 2014 ambon   CO2              88  43.4 big       1.02 27min means~
## # ... with 540 more rows

Select data of data1 which treatment is control.

data_control<- data1 %>% filter(data1$treatment=='control')
data_control

## # A tibble: 287 x 9
##     ...1 loc       Species treatment animal_id    sl size  activity comment     
##    <dbl> <chr>     <chr>   <chr>         <dbl> <dbl> <chr>    <dbl> <chr>       
##  1    40 LIRS 2014 lemon   control          51  36.0 big       4.68 27min means~
##  2    41 LIRS 2014 lemon   control         116  38.4 big       9.73 27min means~
##  3    42 LIRS 2014 lemon   control         122  38.3 big       2.61 27min means~
##  4    43 LIRS 2014 ambon   control         124  45.6 big      31.0  27min means~
##  5    44 LIRS 2014 ambon   control         125  37.5 big      20.1  27min means~
##  6    45 LIRS 2014 ambon   control         132  36.7 big       9.75 27min means~
##  7    46 LIRS 2014 ambon   control         133  43.4 big       7.88 27min means~
##  8    47 LIRS 2014 ambon   control         134  41.1 big       7.97 27min means~
##  9    48 LIRS 2014 ambon   control         140  62.6 big      12.8  27min means~
## 10    49 LIRS 2014 ambon   control         142  42.5 big      18.7  27min means~
## # ... with 277 more rows
…
Select data of data1 which treatment is CO2.

data_co2<- data1 %>% filter(data1$treatment=='CO2')
data_co2

## # A tibble: 263 x 9
##     ...1 loc       Species treatment animal_id    sl size  activity comment     
##    <dbl> <chr>     <chr>   <chr>         <dbl> <dbl> <chr>    <dbl> <chr>       
##  1     1 LIRS 2014 ambon   CO2              64  57.0 big       8.15 27min means~
##  2     2 LIRS 2014 ambon   CO2              65  38.2 big      10.5  27min means~
##  3     3 LIRS 2014 ambon   CO2              67  39.3 big       6.51 27min means~
##  4     4 LIRS 2014 ambon   CO2              68  36.1 big      27.8  27min means~
##  5     5 LIRS 2014 lemon   CO2              74  36.4 big      36.7  27min means~
##  6     6 LIRS 2014 ambon   CO2              75  35.9 big      42.8  27min means~
##  7     7 LIRS 2014 lemon   CO2              81  35.7 big      21.9  27min means~
##  8     8 LIRS 2014 ambon   CO2              84  38.4 big      24.6  27min means~
##  9    10 LIRS 2014 ambon   CO2              85  48.3 big      35.1  27min means~
## 10    11 LIRS 2014 ambon   CO2              88  43.4 big       1.02 27min means~
## # ... with 253 more rows
…
ocean <- read_csv("C:/Users/Administrator/Desktop/BIOL6207/ocean_meta_data.csv")

## Rows: 818 Columns: 22
## -- Column specification --------------------------------------------------------
## Delimiter: ","
## chr (13): Study, Authors, Title, Journal, Pub year IF, 2017 IF, Effect type,...
## dbl  (9): Year (online), Year (print), Average n, ctrl.n, ctrl.mean, ctrl.sd...
## 
## i Use `spec()` to retrieve the full column specification for this data.
## i Specify the column types or set `show_col_types = FALSE` to quiet this message.

ocean

## # A tibble: 818 x 22
##    Study Authors      `Year (online)` `Year (print)` Title Journal `Pub year IF`
##    <chr> <chr>                  <dbl>          <dbl> <chr> <chr>   <chr>        
##  1 a1    Munday et al            2009           2009 Ocea~ PNAS    9.432        
##  2 a1    Munday et al            2009           2009 Ocea~ PNAS    9.432        
##  3 a1    Munday et al            2009           2009 Ocea~ PNAS    9.432        
##  4 a1    Munday et al            2009           2009 Ocea~ PNAS    9.432        
##  5 a1    Munday et al            2009           2009 Ocea~ PNAS    9.432        
##  6 a1    Munday et al            2009           2009 Ocea~ PNAS    9.432        
##  7 a1    Munday et al            2009           2009 Ocea~ PNAS    9.432        
##  8 a2    Dixson et al            2009           2010 Ocea~ Ecol L~ 10.318       
##  9 a2    Dixson et al            2009           2010 Ocea~ Ecol L~ 10.318       
## 10 a2    Dixson et al            2009           2010 Ocea~ Ecol L~ 10.318       
## # ... with 808 more rows, and 15 more variables: 2017 IF <chr>,
## #   Average n <dbl>, Effect type <chr>, Species <chr>,
## #   Climate (FishBase) <chr>, Env cue/stimulus? <chr>, Cue/stimulus type <chr>,
## #   Behavioural metric <chr>, Life stage <chr>, ctrl.n <dbl>, ctrl.mean <dbl>,
## #   ctrl.sd <dbl>, oa.n <dbl>, oa.mean <dbl>, oa.sd <dbl>
…
Combine the data of ocean and calls2 into one tibble.

tot <- bind_rows(ocean,calls2)
total<-tot%>%mutate(residual = 1:n())
total

## # A tibble: 824 x 23
##    Study Authors      `Year (online)` `Year (print)` Title Journal `Pub year IF`
##    <chr> <chr>                  <dbl>          <dbl> <chr> <chr>   <chr>        
##  1 a1    Munday et al            2009           2009 Ocea~ PNAS    9.432        
##  2 a1    Munday et al            2009           2009 Ocea~ PNAS    9.432        
##  3 a1    Munday et al            2009           2009 Ocea~ PNAS    9.432        
##  4 a1    Munday et al            2009           2009 Ocea~ PNAS    9.432        
##  5 a1    Munday et al            2009           2009 Ocea~ PNAS    9.432        
##  6 a1    Munday et al            2009           2009 Ocea~ PNAS    9.432        
##  7 a1    Munday et al            2009           2009 Ocea~ PNAS    9.432        
##  8 a2    Dixson et al            2009           2010 Ocea~ Ecol L~ 10.318       
##  9 a2    Dixson et al            2009           2010 Ocea~ Ecol L~ 10.318       
## 10 a2    Dixson et al            2009           2010 Ocea~ Ecol L~ 10.318       
## # ... with 814 more rows, and 16 more variables: 2017 IF <chr>,
## #   Average n <dbl>, Effect type <chr>, Species <chr>,
## #   Climate (FishBase) <chr>, Env cue/stimulus? <chr>, Cue/stimulus type <chr>,
## #   Behavioural metric <chr>, Life stage <chr>, ctrl.n <dbl>, ctrl.mean <dbl>,
## #   ctrl.sd <dbl>, oa.n <dbl>, oa.mean <dbl>, oa.sd <dbl>, residual <int>
…
